{
  "type": "service_account",
  "project_id": "lovappy-testing",
  "private_key_id": "23c115e5e0616b6c03f1b4ac93885328e28ca487",
  "private_key": "-----BEGIN PRIVATE KEY-----\nMIIEvQIBADANBgkqhkiG9w0BAQEFAASCBKcwggSjAgEAAoIBAQDtJUqlSb6sZiHw\n0wK8tj9F9QLFbjXYexS4aSDFypDqvjLdbjW3RPtF7ZI+9+NquFwwQmNTZM+alMaO\nPkmdtk9L41Qg8Fb7w3y6RjA0IRo7hKgIa270K1ZZFW9OVmOqtM1VH9Cx/3PiWOIK\n7PQ7WhbD4pQYxbb/pfNEHMjYeZTwP3dUor+IRwmIC7ItDTlULT8HM9XxbqcTi0zu\nfyNVVwKv4YDVIZGOo2k9kj6UK4BWNHaX08AX3/aOuCqs/lT1npnQ25L9QXqlPiLN\neuPzYplZ8wQz6Wv42u3SFInvgrQTBGmOErcsjtumY7ZRN0cc1CZ/SAFKMbEbLIZc\nEq20DLBVAgMBAAECggEAMrWstpeEXF0imNqmVTAra4wu4YTlorr+/UgNp/3e6zNs\nsQjmF6B6ksNwaGKdkK6HmBI6JxUBh66UnsoW99CKOFIOJVT/ZKqyuypTGHKTp3KA\nc/x1J2U0+6unt3qlqVUsKy24dLeJUjdrbqaouyBSieSjgoCU1ynnUQNOt2uYO58N\nPLTWq5azvqbTHS4szrfSXzUl1ZYvHrtywUsgZ9qRb6yu7FnOWcwmBezyQjqTR5GU\nJxa02pcEKvDh+i/nhSytvZ0s02rr3Wnj7BHBZfTNpMvSzJAzySrQt3SAOBdSu8es\n7XyDu7r2cCQO6uG9Yz0l2Q1SFqLWuxs/x+KseY1eAQKBgQD9X044AfjqsTOMFoM1\nNMskFrN+rbLv/kUfYuOOAnrWTZrh9eTSPkg6craZDKgtVaroV7A9s0grnaHv3YXF\nDm6Stz5HVMuYxU+kiFfbo90lor5ISwaC+EXlBvNUcSp1UvGmBZsJgqFekg+JaHDU\n0be7/v9GRSequriGEaX7y6FPQQKBgQDvmueqsy509rqYqVASbY5wTX3NCidoOVw3\nwvXUeX8Fubz7lCUPVSIU/1dG/fr8J/FbPFLJW0dm8k9RJnZyzTUplWoaJHbrHKg2\nVWaYX3u9tMSUTH+szeW0nLVKdCjq2JSrQK/GEIqfQYNup6hyRojLkhd/STJC6oTT\n1/PUuLUwFQKBgFaH7AC4u7f7WK1pKtpK822ZyydiTxAjeJvle+2N70GtM04kWkdr\nOeOsNaxDZFRHQ50iBXCs/+LVbO6savkHmr/EkSJvVTERgcehQNAkQGyQDghGhyzH\neadkHkoic+uprhmTJIW09UOFAoVdA9vK28L6rVfkWk22gzpWYKeDvc2BAoGBAI3S\nK4OvMTVMAOBxfxKZRDEWvPqLIw4evYXH4QgVreiuqrxiUJlFs7mn9XnwxQlRfxuY\nlgvW+mllzSrkUEHdUrU9WiMFKFo7iRk37VUNV0nPYHfC2+Nlr6v7AZeDL+Dptv2y\neRgMHHDtLyVlGWAifb+4xi2yHozbESnu7cUgWyaNAoGALIZfM/N7gOlru3A7Lk3E\n0EZelTZQoh5EsqGHuGFIh81SmntO0Ao9m4ZbRL3pi5TV7NtCcxFDQ6K+n9PvtQld\ndrOwiffrcVz0CoN3yON0lWGEje0+61GsOkNsOt2uJBvXRyJyJBQj1tZPerT9ioHg\nHi0pjB0DjWLBexblw4kiQZA=\n-----END PRIVATE KEY-----\n",
  "client_email": "dialogflow-rakscl@lovappy-testing.iam.gserviceaccount.com",
  "client_id": "113342257377766020445",
  "auth_uri": "https://accounts.google.com/o/oauth2/auth",
  "token_uri": "https://oauth2.googleapis.com/token",
  "auth_provider_x509_cert_url": "https://www.googleapis.com/oauth2/v1/certs",
  "client_x509_cert_url": "https://www.googleapis.com/robot/v1/metadata/x509/dialogflow-rakscl%40lovappy-testing.iam.gserviceaccount.com"
}
