com/realroofers/lovappy/web/config/ApplicationConfigTest.class
com/realroofers/lovappy/web/controller/user/RegistrationControllerTest.class
com/realroofers/lovappy/web/controller/AbstractMockMvcTest.class
com/realroofers/lovappy/web/controller/AbstractMockMvcWithSecurityTest.class
